{
  "ast": null,
  "code": "import { Validators } from \"@angular/forms\";\nimport { checkPassword } from \"../../core/validators/password.validator\";\nimport { checkEmail } from \"../../core/validators/email.validator\";\nimport * as i0 from \"@angular/core\";\nimport * as i1 from \"@angular/forms\";\nimport * as i2 from \"../../shared/services/auth.service\";\nimport * as i3 from \"../../shared/components/clear-input/clear-input.component\";\nimport * as i4 from \"@angular/common\";\n\nconst _c0 = function (a0) {\n  return {\n    \"bg-gray-600 \": a0\n  };\n};\n\nexport class SignUpComponent {\n  constructor(fb, authService) {\n    this.fb = fb;\n    this.authService = authService;\n    this.message = '';\n    this.accountSignupForm = this.fb.group({\n      firstName: ['', [Validators.required]],\n      lastName: ['', [Validators.required]],\n      email: ['', {\n        validators: [Validators.required],\n        asyncValidators: [checkEmail(this.authService)],\n        updateOn: 'blur'\n      }],\n      password: ['', {\n        validators: [checkPassword()]\n      }]\n    });\n  }\n\n  ngOnInit() {\n    this.accountSignupForm.controls['firstName'].valueChanges.subscribe(obs => this.updatePasswordValueAndValidity());\n    this.accountSignupForm.controls['lastName'].valueChanges.subscribe(obs => this.updatePasswordValueAndValidity());\n  }\n\n  updatePasswordValueAndValidity() {\n    this.accountSignupForm.controls['password'].updateValueAndValidity({\n      emitEvent: false\n    });\n  }\n\n  onSubmit() {\n    if (!this.accountSignupForm.valid) {\n      return;\n    }\n\n    const user = this.accountSignupForm.value;\n    this.authService.sendSignupRequest(user).subscribe(result => {\n      this.message = `User ${result.firstName} has been registered successfully!`;\n    });\n  }\n\n}\n\nSignUpComponent.ɵfac = function SignUpComponent_Factory(t) {\n  return new (t || SignUpComponent)(i0.ɵɵdirectiveInject(i1.FormBuilder), i0.ɵɵdirectiveInject(i2.AuthService));\n};\n\nSignUpComponent.ɵcmp = /*@__PURE__*/i0.ɵɵdefineComponent({\n  type: SignUpComponent,\n  selectors: [[\"app-sign-up\"]],\n  decls: 14,\n  vars: 9,\n  consts: [[1, \"bg-grey-lighter\", \"flex\", \"justify-center\", \"px-3\"], [1, \"bg-white\", \"px-6\", \"py-8\", \"rounded\", \"shadow-md\", \"text-black\", \"content-between\", \"md:w-1/4\", \"w-full\"], [1, \"mb-8\", \"text-3xl\", \"text-center\"], [3, \"formGroup\", \"ngSubmit\"], [\"inputPlaceholder\", \"First Name\", \"formControlName\", \"firstName\"], [\"inputPlaceholder\", \"Last Name\", \"value\", \"\", \"formControlName\", \"lastName\"], [\"inputType\", \"email\", \"inputPlaceholder\", \"Email\", \"formControlName\", \"email\"], [\"inputType\", \"password\", \"inputPlaceholder\", \"Password\", \"formControlName\", \"password\"], [\"type\", \"submit\", 1, \"w-full\", \"text-center\", \"py-3\", \"rounded\", \"bg-purple-700\", \"text-white\", \"hover:bg-gray-600\", \"focus:outline-none\", \"my-1\", 3, \"disabled\", \"ngClass\"]],\n  template: function SignUpComponent_Template(rf, ctx) {\n    if (rf & 1) {\n      i0.ɵɵelementStart(0, \"div\", 0)(1, \"div\", 1)(2, \"h1\", 2);\n      i0.ɵɵtext(3, \"Sign up\");\n      i0.ɵɵelementEnd();\n      i0.ɵɵelementStart(4, \"form\", 3);\n      i0.ɵɵlistener(\"ngSubmit\", function SignUpComponent_Template_form_ngSubmit_4_listener() {\n        return ctx.onSubmit();\n      });\n      i0.ɵɵtext(5);\n      i0.ɵɵpipe(6, \"json\");\n      i0.ɵɵelement(7, \"app-clear-input\", 4)(8, \"app-clear-input\", 5)(9, \"app-clear-input\", 6)(10, \"app-clear-input\", 7);\n      i0.ɵɵelementStart(11, \"button\", 8);\n      i0.ɵɵtext(12, \"Create Account\");\n      i0.ɵɵelementEnd()();\n      i0.ɵɵtext(13);\n      i0.ɵɵelementEnd()();\n    }\n\n    if (rf & 2) {\n      i0.ɵɵadvance(4);\n      i0.ɵɵproperty(\"formGroup\", ctx.accountSignupForm);\n      i0.ɵɵadvance(1);\n      i0.ɵɵtextInterpolate1(\" \", i0.ɵɵpipeBind1(6, 5, ctx.accountSignupForm.value), \" \");\n      i0.ɵɵadvance(6);\n      i0.ɵɵproperty(\"disabled\", !ctx.accountSignupForm.valid)(\"ngClass\", i0.ɵɵpureFunction1(7, _c0, !ctx.accountSignupForm.valid));\n      i0.ɵɵadvance(2);\n      i0.ɵɵtextInterpolate1(\" \", ctx.message, \" \");\n    }\n  },\n  directives: [i1.ɵNgNoValidate, i1.NgControlStatusGroup, i1.FormGroupDirective, i3.ClearInputComponent, i1.NgControlStatus, i1.FormControlName, i4.NgClass],\n  pipes: [i4.JsonPipe],\n  styles: [\"\\n/*# sourceMappingURL=data:application/json;base64,eyJ2ZXJzaW9uIjozLCJzb3VyY2VzIjpbXSwibmFtZXMiOltdLCJtYXBwaW5ncyI6IiIsImZpbGUiOiJzaWduLXVwLmNvbXBvbmVudC5jc3MifQ== */\"]\n});",
  "map": {
    "version": 3,
    "sources": [
      "/Users/muratzengin/Development/fedex/src/app/auth/sign-up/sign-up.component.ts"
    ],
    "names": [
      "Validators",
      "checkPassword",
      "checkEmail",
      "i0",
      "i1",
      "i2",
      "i3",
      "i4",
      "_c0",
      "a0",
      "SignUpComponent",
      "constructor",
      "fb",
      "authService",
      "message",
      "accountSignupForm",
      "group",
      "firstName",
      "required",
      "lastName",
      "email",
      "validators",
      "asyncValidators",
      "updateOn",
      "password",
      "ngOnInit",
      "controls",
      "valueChanges",
      "subscribe",
      "obs",
      "updatePasswordValueAndValidity",
      "updateValueAndValidity",
      "emitEvent",
      "onSubmit",
      "valid",
      "user",
      "value",
      "sendSignupRequest",
      "result",
      "ɵfac",
      "SignUpComponent_Factory",
      "t",
      "ɵɵdirectiveInject",
      "FormBuilder",
      "AuthService",
      "ɵcmp",
      "ɵɵdefineComponent",
      "type",
      "selectors",
      "decls",
      "vars",
      "consts",
      "template",
      "SignUpComponent_Template",
      "rf",
      "ctx",
      "ɵɵelementStart",
      "ɵɵtext",
      "ɵɵelementEnd",
      "ɵɵlistener",
      "SignUpComponent_Template_form_ngSubmit_4_listener",
      "ɵɵpipe",
      "ɵɵelement",
      "ɵɵadvance",
      "ɵɵproperty",
      "ɵɵtextInterpolate1",
      "ɵɵpipeBind1",
      "ɵɵpureFunction1",
      "directives",
      "ɵNgNoValidate",
      "NgControlStatusGroup",
      "FormGroupDirective",
      "ClearInputComponent",
      "NgControlStatus",
      "FormControlName",
      "NgClass",
      "pipes",
      "JsonPipe",
      "styles"
    ],
    "mappings": "AAAA,SAASA,UAAT,QAA2B,gBAA3B;AACA,SAASC,aAAT,QAA8B,0CAA9B;AACA,SAASC,UAAT,QAA2B,uCAA3B;AACA,OAAO,KAAKC,EAAZ,MAAoB,eAApB;AACA,OAAO,KAAKC,EAAZ,MAAoB,gBAApB;AACA,OAAO,KAAKC,EAAZ,MAAoB,oCAApB;AACA,OAAO,KAAKC,EAAZ,MAAoB,2DAApB;AACA,OAAO,KAAKC,EAAZ,MAAoB,iBAApB;;AACA,MAAMC,GAAG,GAAG,UAAUC,EAAV,EAAc;AAAE,SAAO;AAAE,oBAAgBA;AAAlB,GAAP;AAAgC,CAA5D;;AACA,OAAO,MAAMC,eAAN,CAAsB;AACzBC,EAAAA,WAAW,CAACC,EAAD,EAAKC,WAAL,EAAkB;AACzB,SAAKD,EAAL,GAAUA,EAAV;AACA,SAAKC,WAAL,GAAmBA,WAAnB;AACA,SAAKC,OAAL,GAAe,EAAf;AACA,SAAKC,iBAAL,GAAyB,KAAKH,EAAL,CAAQI,KAAR,CAAc;AACnCC,MAAAA,SAAS,EAAE,CAAC,EAAD,EAAK,CAACjB,UAAU,CAACkB,QAAZ,CAAL,CADwB;AAEnCC,MAAAA,QAAQ,EAAE,CAAC,EAAD,EAAK,CAACnB,UAAU,CAACkB,QAAZ,CAAL,CAFyB;AAGnCE,MAAAA,KAAK,EAAE,CAAC,EAAD,EAAK;AACJC,QAAAA,UAAU,EAAE,CAACrB,UAAU,CAACkB,QAAZ,CADR;AAEJI,QAAAA,eAAe,EAAE,CAACpB,UAAU,CAAC,KAAKW,WAAN,CAAX,CAFb;AAGJU,QAAAA,QAAQ,EAAE;AAHN,OAAL,CAH4B;AAQnCC,MAAAA,QAAQ,EAAE,CAAC,EAAD,EAAK;AACPH,QAAAA,UAAU,EAAE,CAACpB,aAAa,EAAd;AADL,OAAL;AARyB,KAAd,CAAzB;AAYH;;AACDwB,EAAAA,QAAQ,GAAG;AACP,SAAKV,iBAAL,CAAuBW,QAAvB,CAAgC,WAAhC,EAA6CC,YAA7C,CACKC,SADL,CACeC,GAAG,IAAI,KAAKC,8BAAL,EADtB;AAEA,SAAKf,iBAAL,CAAuBW,QAAvB,CAAgC,UAAhC,EAA4CC,YAA5C,CACKC,SADL,CACeC,GAAG,IAAI,KAAKC,8BAAL,EADtB;AAEH;;AACDA,EAAAA,8BAA8B,GAAG;AAC7B,SAAKf,iBAAL,CAAuBW,QAAvB,CAAgC,UAAhC,EAA4CK,sBAA5C,CAAmE;AAAEC,MAAAA,SAAS,EAAE;AAAb,KAAnE;AACH;;AACDC,EAAAA,QAAQ,GAAG;AACP,QAAI,CAAC,KAAKlB,iBAAL,CAAuBmB,KAA5B,EAAmC;AAC/B;AACH;;AACD,UAAMC,IAAI,GAAG,KAAKpB,iBAAL,CAAuBqB,KAApC;AACA,SAAKvB,WAAL,CAAiBwB,iBAAjB,CAAmCF,IAAnC,EAAyCP,SAAzC,CAAmDU,MAAM,IAAI;AACzD,WAAKxB,OAAL,GAAgB,QAAOwB,MAAM,CAACrB,SAAU,oCAAxC;AACH,KAFD;AAGH;;AAnCwB;;AAqC7BP,eAAe,CAAC6B,IAAhB,GAAuB,SAASC,uBAAT,CAAiCC,CAAjC,EAAoC;AAAE,SAAO,KAAKA,CAAC,IAAI/B,eAAV,EAA2BP,EAAE,CAACuC,iBAAH,CAAqBtC,EAAE,CAACuC,WAAxB,CAA3B,EAAiExC,EAAE,CAACuC,iBAAH,CAAqBrC,EAAE,CAACuC,WAAxB,CAAjE,CAAP;AAAgH,CAA7K;;AACAlC,eAAe,CAACmC,IAAhB,GAAuB,aAAc1C,EAAE,CAAC2C,iBAAH,CAAqB;AAAEC,EAAAA,IAAI,EAAErC,eAAR;AAAyBsC,EAAAA,SAAS,EAAE,CAAC,CAAC,aAAD,CAAD,CAApC;AAAuDC,EAAAA,KAAK,EAAE,EAA9D;AAAkEC,EAAAA,IAAI,EAAE,CAAxE;AAA2EC,EAAAA,MAAM,EAAE,CAAC,CAAC,CAAD,EAAI,iBAAJ,EAAuB,MAAvB,EAA+B,gBAA/B,EAAiD,MAAjD,CAAD,EAA2D,CAAC,CAAD,EAAI,UAAJ,EAAgB,MAAhB,EAAwB,MAAxB,EAAgC,SAAhC,EAA2C,WAA3C,EAAwD,YAAxD,EAAsE,iBAAtE,EAAyF,UAAzF,EAAqG,QAArG,CAA3D,EAA2K,CAAC,CAAD,EAAI,MAAJ,EAAY,UAAZ,EAAwB,aAAxB,CAA3K,EAAmN,CAAC,CAAD,EAAI,WAAJ,EAAiB,UAAjB,CAAnN,EAAiP,CAAC,kBAAD,EAAqB,YAArB,EAAmC,iBAAnC,EAAsD,WAAtD,CAAjP,EAAqT,CAAC,kBAAD,EAAqB,WAArB,EAAkC,OAAlC,EAA2C,EAA3C,EAA+C,iBAA/C,EAAkE,UAAlE,CAArT,EAAoY,CAAC,WAAD,EAAc,OAAd,EAAuB,kBAAvB,EAA2C,OAA3C,EAAoD,iBAApD,EAAuE,OAAvE,CAApY,EAAqd,CAAC,WAAD,EAAc,UAAd,EAA0B,kBAA1B,EAA8C,UAA9C,EAA0D,iBAA1D,EAA6E,UAA7E,CAArd,EAA+iB,CAAC,MAAD,EAAS,QAAT,EAAmB,CAAnB,EAAsB,QAAtB,EAAgC,aAAhC,EAA+C,MAA/C,EAAuD,SAAvD,EAAkE,eAAlE,EAAmF,YAAnF,EAAiG,mBAAjG,EAAsH,oBAAtH,EAA4I,MAA5I,EAAoJ,CAApJ,EAAuJ,UAAvJ,EAAmK,SAAnK,CAA/iB,CAAnF;AAAkzBC,EAAAA,QAAQ,EAAE,SAASC,wBAAT,CAAkCC,EAAlC,EAAsCC,GAAtC,EAA2C;AAAE,QAAID,EAAE,GAAG,CAAT,EAAY;AACv6BnD,MAAAA,EAAE,CAACqD,cAAH,CAAkB,CAAlB,EAAqB,KAArB,EAA4B,CAA5B,EAA+B,CAA/B,EAAkC,KAAlC,EAAyC,CAAzC,EAA4C,CAA5C,EAA+C,IAA/C,EAAqD,CAArD;AACArD,MAAAA,EAAE,CAACsD,MAAH,CAAU,CAAV,EAAa,SAAb;AACAtD,MAAAA,EAAE,CAACuD,YAAH;AACAvD,MAAAA,EAAE,CAACqD,cAAH,CAAkB,CAAlB,EAAqB,MAArB,EAA6B,CAA7B;AACArD,MAAAA,EAAE,CAACwD,UAAH,CAAc,UAAd,EAA0B,SAASC,iDAAT,GAA6D;AAAE,eAAOL,GAAG,CAACtB,QAAJ,EAAP;AAAwB,OAAjH;AACA9B,MAAAA,EAAE,CAACsD,MAAH,CAAU,CAAV;AACAtD,MAAAA,EAAE,CAAC0D,MAAH,CAAU,CAAV,EAAa,MAAb;AACA1D,MAAAA,EAAE,CAAC2D,SAAH,CAAa,CAAb,EAAgB,iBAAhB,EAAmC,CAAnC,EAAsC,CAAtC,EAAyC,iBAAzC,EAA4D,CAA5D,EAA+D,CAA/D,EAAkE,iBAAlE,EAAqF,CAArF,EAAwF,EAAxF,EAA4F,iBAA5F,EAA+G,CAA/G;AACA3D,MAAAA,EAAE,CAACqD,cAAH,CAAkB,EAAlB,EAAsB,QAAtB,EAAgC,CAAhC;AACArD,MAAAA,EAAE,CAACsD,MAAH,CAAU,EAAV,EAAc,gBAAd;AACAtD,MAAAA,EAAE,CAACuD,YAAH;AACAvD,MAAAA,EAAE,CAACsD,MAAH,CAAU,EAAV;AACAtD,MAAAA,EAAE,CAACuD,YAAH;AACH;;AAAC,QAAIJ,EAAE,GAAG,CAAT,EAAY;AACVnD,MAAAA,EAAE,CAAC4D,SAAH,CAAa,CAAb;AACA5D,MAAAA,EAAE,CAAC6D,UAAH,CAAc,WAAd,EAA2BT,GAAG,CAACxC,iBAA/B;AACAZ,MAAAA,EAAE,CAAC4D,SAAH,CAAa,CAAb;AACA5D,MAAAA,EAAE,CAAC8D,kBAAH,CAAsB,GAAtB,EAA2B9D,EAAE,CAAC+D,WAAH,CAAe,CAAf,EAAkB,CAAlB,EAAqBX,GAAG,CAACxC,iBAAJ,CAAsBqB,KAA3C,CAA3B,EAA8E,GAA9E;AACAjC,MAAAA,EAAE,CAAC4D,SAAH,CAAa,CAAb;AACA5D,MAAAA,EAAE,CAAC6D,UAAH,CAAc,UAAd,EAA0B,CAACT,GAAG,CAACxC,iBAAJ,CAAsBmB,KAAjD,EAAwD,SAAxD,EAAmE/B,EAAE,CAACgE,eAAH,CAAmB,CAAnB,EAAsB3D,GAAtB,EAA2B,CAAC+C,GAAG,CAACxC,iBAAJ,CAAsBmB,KAAlD,CAAnE;AACA/B,MAAAA,EAAE,CAAC4D,SAAH,CAAa,CAAb;AACA5D,MAAAA,EAAE,CAAC8D,kBAAH,CAAsB,GAAtB,EAA2BV,GAAG,CAACzC,OAA/B,EAAwC,GAAxC;AACH;AAAE,GAvBmD;AAuBjDsD,EAAAA,UAAU,EAAE,CAAChE,EAAE,CAACiE,aAAJ,EAAmBjE,EAAE,CAACkE,oBAAtB,EAA4ClE,EAAE,CAACmE,kBAA/C,EAAmEjE,EAAE,CAACkE,mBAAtE,EAA2FpE,EAAE,CAACqE,eAA9F,EAA+GrE,EAAE,CAACsE,eAAlH,EAAmInE,EAAE,CAACoE,OAAtI,CAvBqC;AAuB2GC,EAAAA,KAAK,EAAE,CAACrE,EAAE,CAACsE,QAAJ,CAvBlH;AAuBiIC,EAAAA,MAAM,EAAE,CAAC,yKAAD;AAvBzI,CAArB,CAArC",
    "sourcesContent": [
      "import { Validators } from \"@angular/forms\";\nimport { checkPassword } from \"../../core/validators/password.validator\";\nimport { checkEmail } from \"../../core/validators/email.validator\";\nimport * as i0 from \"@angular/core\";\nimport * as i1 from \"@angular/forms\";\nimport * as i2 from \"../../shared/services/auth.service\";\nimport * as i3 from \"../../shared/components/clear-input/clear-input.component\";\nimport * as i4 from \"@angular/common\";\nconst _c0 = function (a0) { return { \"bg-gray-600 \": a0 }; };\nexport class SignUpComponent {\n    constructor(fb, authService) {\n        this.fb = fb;\n        this.authService = authService;\n        this.message = '';\n        this.accountSignupForm = this.fb.group({\n            firstName: ['', [Validators.required]],\n            lastName: ['', [Validators.required]],\n            email: ['', {\n                    validators: [Validators.required],\n                    asyncValidators: [checkEmail(this.authService)],\n                    updateOn: 'blur'\n                }],\n            password: ['', {\n                    validators: [checkPassword()]\n                }]\n        });\n    }\n    ngOnInit() {\n        this.accountSignupForm.controls['firstName'].valueChanges\n            .subscribe(obs => this.updatePasswordValueAndValidity());\n        this.accountSignupForm.controls['lastName'].valueChanges\n            .subscribe(obs => this.updatePasswordValueAndValidity());\n    }\n    updatePasswordValueAndValidity() {\n        this.accountSignupForm.controls['password'].updateValueAndValidity({ emitEvent: false });\n    }\n    onSubmit() {\n        if (!this.accountSignupForm.valid) {\n            return;\n        }\n        const user = this.accountSignupForm.value;\n        this.authService.sendSignupRequest(user).subscribe(result => {\n            this.message = `User ${result.firstName} has been registered successfully!`;\n        });\n    }\n}\nSignUpComponent.ɵfac = function SignUpComponent_Factory(t) { return new (t || SignUpComponent)(i0.ɵɵdirectiveInject(i1.FormBuilder), i0.ɵɵdirectiveInject(i2.AuthService)); };\nSignUpComponent.ɵcmp = /*@__PURE__*/ i0.ɵɵdefineComponent({ type: SignUpComponent, selectors: [[\"app-sign-up\"]], decls: 14, vars: 9, consts: [[1, \"bg-grey-lighter\", \"flex\", \"justify-center\", \"px-3\"], [1, \"bg-white\", \"px-6\", \"py-8\", \"rounded\", \"shadow-md\", \"text-black\", \"content-between\", \"md:w-1/4\", \"w-full\"], [1, \"mb-8\", \"text-3xl\", \"text-center\"], [3, \"formGroup\", \"ngSubmit\"], [\"inputPlaceholder\", \"First Name\", \"formControlName\", \"firstName\"], [\"inputPlaceholder\", \"Last Name\", \"value\", \"\", \"formControlName\", \"lastName\"], [\"inputType\", \"email\", \"inputPlaceholder\", \"Email\", \"formControlName\", \"email\"], [\"inputType\", \"password\", \"inputPlaceholder\", \"Password\", \"formControlName\", \"password\"], [\"type\", \"submit\", 1, \"w-full\", \"text-center\", \"py-3\", \"rounded\", \"bg-purple-700\", \"text-white\", \"hover:bg-gray-600\", \"focus:outline-none\", \"my-1\", 3, \"disabled\", \"ngClass\"]], template: function SignUpComponent_Template(rf, ctx) { if (rf & 1) {\n        i0.ɵɵelementStart(0, \"div\", 0)(1, \"div\", 1)(2, \"h1\", 2);\n        i0.ɵɵtext(3, \"Sign up\");\n        i0.ɵɵelementEnd();\n        i0.ɵɵelementStart(4, \"form\", 3);\n        i0.ɵɵlistener(\"ngSubmit\", function SignUpComponent_Template_form_ngSubmit_4_listener() { return ctx.onSubmit(); });\n        i0.ɵɵtext(5);\n        i0.ɵɵpipe(6, \"json\");\n        i0.ɵɵelement(7, \"app-clear-input\", 4)(8, \"app-clear-input\", 5)(9, \"app-clear-input\", 6)(10, \"app-clear-input\", 7);\n        i0.ɵɵelementStart(11, \"button\", 8);\n        i0.ɵɵtext(12, \"Create Account\");\n        i0.ɵɵelementEnd()();\n        i0.ɵɵtext(13);\n        i0.ɵɵelementEnd()();\n    } if (rf & 2) {\n        i0.ɵɵadvance(4);\n        i0.ɵɵproperty(\"formGroup\", ctx.accountSignupForm);\n        i0.ɵɵadvance(1);\n        i0.ɵɵtextInterpolate1(\" \", i0.ɵɵpipeBind1(6, 5, ctx.accountSignupForm.value), \" \");\n        i0.ɵɵadvance(6);\n        i0.ɵɵproperty(\"disabled\", !ctx.accountSignupForm.valid)(\"ngClass\", i0.ɵɵpureFunction1(7, _c0, !ctx.accountSignupForm.valid));\n        i0.ɵɵadvance(2);\n        i0.ɵɵtextInterpolate1(\" \", ctx.message, \" \");\n    } }, directives: [i1.ɵNgNoValidate, i1.NgControlStatusGroup, i1.FormGroupDirective, i3.ClearInputComponent, i1.NgControlStatus, i1.FormControlName, i4.NgClass], pipes: [i4.JsonPipe], styles: [\"\\n/*# sourceMappingURL=data:application/json;base64,eyJ2ZXJzaW9uIjozLCJzb3VyY2VzIjpbXSwibmFtZXMiOltdLCJtYXBwaW5ncyI6IiIsImZpbGUiOiJzaWduLXVwLmNvbXBvbmVudC5jc3MifQ== */\"] });\n"
    ]
  },
  "metadata": {},
  "sourceType": "module"
}
