{
  "ast": null,
  "code": "import { Validators } from \"@angular/forms\";\nimport { checkPassword } from \"../../core/validators/password.validator\";\nimport { checkEmail } from \"../../core/validators/email.validator\";\nimport * as i0 from \"@angular/core\";\nimport * as i1 from \"@angular/forms\";\nimport * as i2 from \"../../shared/services/auth.service\";\nimport * as i3 from \"../../shared/components/clear-input/clear-input.component\";\nimport * as i4 from \"@angular/common\";\n\nfunction SignUpComponent_span_10_Template(rf, ctx) {\n  if (rf & 1) {\n    i0.ɵɵelementStart(0, \"span\");\n    i0.ɵɵnamespaceSVG();\n    i0.ɵɵelementStart(1, \"svg\", 10);\n    i0.ɵɵelement(2, \"path\", 11)(3, \"path\", 12);\n    i0.ɵɵelementEnd();\n    i0.ɵɵtext(4, \" Creating... \");\n    i0.ɵɵelementEnd();\n  }\n}\n\nfunction SignUpComponent_span_11_Template(rf, ctx) {\n  if (rf & 1) {\n    i0.ɵɵelementStart(0, \"span\");\n    i0.ɵɵtext(1, \" Create Account \");\n    i0.ɵɵelementEnd();\n  }\n}\n\nconst _c0 = function (a0) {\n  return {\n    \"bg-gray-600 \": a0\n  };\n};\n\nexport class SignUpComponent {\n  constructor(fb, authService) {\n    this.fb = fb;\n    this.authService = authService;\n    this.message = '';\n    this.loading = false;\n    this.accountSignupForm = this.fb.group({\n      firstName: ['', [Validators.required]],\n      lastName: ['', [Validators.required]],\n      email: ['', {\n        validators: [Validators.required, Validators.email],\n        asyncValidators: [checkEmail(this.authService)],\n        updateOn: 'blur'\n      }],\n      password: ['', {\n        validators: [Validators.required, checkPassword()],\n        updateOn: 'change'\n      }]\n    });\n  }\n\n  ngOnInit() {\n    // Required to listen on below controls in the following scenario\n    // User first enters the password which is valid becsause there is no firstname/lastname\n    // User then enters firstname/lastname\n    // In this case need to update validity of password again\n    this.accountSignupForm.controls['firstName'].valueChanges.subscribe(() => this.updatePasswordValueAndValidity());\n    this.accountSignupForm.controls['lastName'].valueChanges.subscribe(() => this.updatePasswordValueAndValidity());\n  }\n\n  onSubmit() {\n    if (!this.accountSignupForm.valid) {\n      return;\n    }\n\n    const user = this.accountSignupForm.value;\n    this.loading = true;\n    this.authService.sendSignupRequest(user).subscribe(result => {\n      this.message = `User ${result.firstName} has been registered successfully!`;\n      this.loading = false;\n    }, () => {\n      this.message = `Something went wrong!`;\n      this.loading = false;\n    });\n  }\n\n  updatePasswordValueAndValidity() {\n    this.accountSignupForm.controls['password'].updateValueAndValidity({\n      emitEvent: false\n    });\n  }\n\n}\n\nSignUpComponent.ɵfac = function SignUpComponent_Factory(t) {\n  return new (t || SignUpComponent)(i0.ɵɵdirectiveInject(i1.FormBuilder), i0.ɵɵdirectiveInject(i2.AuthService));\n};\n\nSignUpComponent.ɵcmp = /*@__PURE__*/i0.ɵɵdefineComponent({\n  type: SignUpComponent,\n  selectors: [[\"app-sign-up\"]],\n  decls: 13,\n  vars: 8,\n  consts: [[1, \"bg-grey-lighter\", \"flex\", \"justify-center\", \"px-3\"], [1, \"bg-white\", \"px-6\", \"py-8\", \"rounded\", \"shadow-md\", \"text-black\", \"content-between\", \"md:w-1/4\", \"w-full\"], [1, \"mb-8\", \"text-3xl\", \"text-center\"], [3, \"formGroup\", \"ngSubmit\"], [\"formControlName\", \"firstName\", \"inputPlaceholder\", \"First Name\"], [\"formControlName\", \"lastName\", \"inputPlaceholder\", \"Last Name\", \"value\", \"\"], [\"formControlName\", \"email\", \"inputPlaceholder\", \"Email\", \"inputType\", \"email\"], [\"formControlName\", \"password\", \"inputPlaceholder\", \"Password\", \"inputType\", \"password\"], [\"type\", \"submit\", 1, \"w-full\", \"text-center\", \"py-3\", \"rounded\", \"bg-purple-700\", \"text-white\", \"hover:bg-gray-600\", \"focus:outline-none\", \"my-1\", 3, \"disabled\", \"ngClass\"], [4, \"ngIf\"], [\"role\", \"status\", \"viewBox\", \"0 0 100 101\", \"fill\", \"none\", \"xmlns\", \"http://www.w3.org/2000/svg\", 1, \"inline\", \"mr-2\", \"w-4\", \"h-4\", \"text-gray-200\", \"animate-spin\", \"dark:text-gray-600\"], [\"d\", \"M100 50.5908C100 78.2051 77.6142 100.591 50 100.591C22.3858 100.591 0 78.2051 0 50.5908C0 22.9766 22.3858 0.59082 50 0.59082C77.6142 0.59082 100 22.9766 100 50.5908ZM9.08144 50.5908C9.08144 73.1895 27.4013 91.5094 50 91.5094C72.5987 91.5094 90.9186 73.1895 90.9186 50.5908C90.9186 27.9921 72.5987 9.67226 50 9.67226C27.4013 9.67226 9.08144 27.9921 9.08144 50.5908Z\", \"fill\", \"currentColor\"], [\"d\", \"M93.9676 39.0409C96.393 38.4038 97.8624 35.9116 97.0079 33.5539C95.2932 28.8227 92.871 24.3692 89.8167 20.348C85.8452 15.1192 80.8826 10.7238 75.2124 7.41289C69.5422 4.10194 63.2754 1.94025 56.7698 1.05124C51.7666 0.367541 46.6976 0.446843 41.7345 1.27873C39.2613 1.69328 37.813 4.19778 38.4501 6.62326C39.0873 9.04874 41.5694 10.4717 44.0505 10.1071C47.8511 9.54855 51.7191 9.52689 55.5402 10.0491C60.8642 10.7766 65.9928 12.5457 70.6331 15.2552C75.2735 17.9648 79.3347 21.5619 82.5849 25.841C84.9175 28.9121 86.7997 32.2913 88.1811 35.8758C89.083 38.2158 91.5421 39.6781 93.9676 39.0409Z\", \"fill\", \"#1C64F2\"]],\n  template: function SignUpComponent_Template(rf, ctx) {\n    if (rf & 1) {\n      i0.ɵɵelementStart(0, \"div\", 0)(1, \"div\", 1)(2, \"h1\", 2);\n      i0.ɵɵtext(3, \"Sign up\");\n      i0.ɵɵelementEnd();\n      i0.ɵɵelementStart(4, \"form\", 3);\n      i0.ɵɵlistener(\"ngSubmit\", function SignUpComponent_Template_form_ngSubmit_4_listener() {\n        return ctx.onSubmit();\n      });\n      i0.ɵɵelement(5, \"app-clear-input\", 4)(6, \"app-clear-input\", 5)(7, \"app-clear-input\", 6)(8, \"app-clear-input\", 7);\n      i0.ɵɵelementStart(9, \"button\", 8);\n      i0.ɵɵtemplate(10, SignUpComponent_span_10_Template, 5, 0, \"span\", 9);\n      i0.ɵɵtemplate(11, SignUpComponent_span_11_Template, 2, 0, \"span\", 9);\n      i0.ɵɵelementEnd()();\n      i0.ɵɵtext(12);\n      i0.ɵɵelementEnd()();\n    }\n\n    if (rf & 2) {\n      i0.ɵɵadvance(4);\n      i0.ɵɵproperty(\"formGroup\", ctx.accountSignupForm);\n      i0.ɵɵadvance(5);\n      i0.ɵɵproperty(\"disabled\", !ctx.accountSignupForm.valid || ctx.loading)(\"ngClass\", i0.ɵɵpureFunction1(6, _c0, !ctx.accountSignupForm.valid));\n      i0.ɵɵadvance(1);\n      i0.ɵɵproperty(\"ngIf\", ctx.loading);\n      i0.ɵɵadvance(1);\n      i0.ɵɵproperty(\"ngIf\", !ctx.loading);\n      i0.ɵɵadvance(1);\n      i0.ɵɵtextInterpolate1(\" \", ctx.message, \" \");\n    }\n  },\n  directives: [i1.ɵNgNoValidate, i1.NgControlStatusGroup, i1.FormGroupDirective, i3.ClearInputComponent, i1.NgControlStatus, i1.FormControlName, i4.NgClass, i4.NgIf],\n  styles: [\"\\n/*# sourceMappingURL=data:application/json;base64,eyJ2ZXJzaW9uIjozLCJzb3VyY2VzIjpbXSwibmFtZXMiOltdLCJtYXBwaW5ncyI6IiIsImZpbGUiOiJzaWduLXVwLmNvbXBvbmVudC5jc3MifQ== */\"]\n});",
  "map": {
    "version": 3,
    "sources": [
      "/Users/muratzengin/Development/fedex/src/app/auth/sign-up/sign-up.component.ts"
    ],
    "names": [
      "Validators",
      "checkPassword",
      "checkEmail",
      "i0",
      "i1",
      "i2",
      "i3",
      "i4",
      "SignUpComponent_span_10_Template",
      "rf",
      "ctx",
      "ɵɵelementStart",
      "ɵɵnamespaceSVG",
      "ɵɵelement",
      "ɵɵelementEnd",
      "ɵɵtext",
      "SignUpComponent_span_11_Template",
      "_c0",
      "a0",
      "SignUpComponent",
      "constructor",
      "fb",
      "authService",
      "message",
      "loading",
      "accountSignupForm",
      "group",
      "firstName",
      "required",
      "lastName",
      "email",
      "validators",
      "asyncValidators",
      "updateOn",
      "password",
      "ngOnInit",
      "controls",
      "valueChanges",
      "subscribe",
      "updatePasswordValueAndValidity",
      "onSubmit",
      "valid",
      "user",
      "value",
      "sendSignupRequest",
      "result",
      "updateValueAndValidity",
      "emitEvent",
      "ɵfac",
      "SignUpComponent_Factory",
      "t",
      "ɵɵdirectiveInject",
      "FormBuilder",
      "AuthService",
      "ɵcmp",
      "ɵɵdefineComponent",
      "type",
      "selectors",
      "decls",
      "vars",
      "consts",
      "template",
      "SignUpComponent_Template",
      "ɵɵlistener",
      "SignUpComponent_Template_form_ngSubmit_4_listener",
      "ɵɵtemplate",
      "ɵɵadvance",
      "ɵɵproperty",
      "ɵɵpureFunction1",
      "ɵɵtextInterpolate1",
      "directives",
      "ɵNgNoValidate",
      "NgControlStatusGroup",
      "FormGroupDirective",
      "ClearInputComponent",
      "NgControlStatus",
      "FormControlName",
      "NgClass",
      "NgIf",
      "styles"
    ],
    "mappings": "AAAA,SAASA,UAAT,QAA2B,gBAA3B;AACA,SAASC,aAAT,QAA8B,0CAA9B;AACA,SAASC,UAAT,QAA2B,uCAA3B;AACA,OAAO,KAAKC,EAAZ,MAAoB,eAApB;AACA,OAAO,KAAKC,EAAZ,MAAoB,gBAApB;AACA,OAAO,KAAKC,EAAZ,MAAoB,oCAApB;AACA,OAAO,KAAKC,EAAZ,MAAoB,2DAApB;AACA,OAAO,KAAKC,EAAZ,MAAoB,iBAApB;;AACA,SAASC,gCAAT,CAA0CC,EAA1C,EAA8CC,GAA9C,EAAmD;AAAE,MAAID,EAAE,GAAG,CAAT,EAAY;AAC7DN,IAAAA,EAAE,CAACQ,cAAH,CAAkB,CAAlB,EAAqB,MAArB;AACAR,IAAAA,EAAE,CAACS,cAAH;AACAT,IAAAA,EAAE,CAACQ,cAAH,CAAkB,CAAlB,EAAqB,KAArB,EAA4B,EAA5B;AACAR,IAAAA,EAAE,CAACU,SAAH,CAAa,CAAb,EAAgB,MAAhB,EAAwB,EAAxB,EAA4B,CAA5B,EAA+B,MAA/B,EAAuC,EAAvC;AACAV,IAAAA,EAAE,CAACW,YAAH;AACAX,IAAAA,EAAE,CAACY,MAAH,CAAU,CAAV,EAAa,eAAb;AACAZ,IAAAA,EAAE,CAACW,YAAH;AACH;AAAE;;AACH,SAASE,gCAAT,CAA0CP,EAA1C,EAA8CC,GAA9C,EAAmD;AAAE,MAAID,EAAE,GAAG,CAAT,EAAY;AAC7DN,IAAAA,EAAE,CAACQ,cAAH,CAAkB,CAAlB,EAAqB,MAArB;AACAR,IAAAA,EAAE,CAACY,MAAH,CAAU,CAAV,EAAa,kBAAb;AACAZ,IAAAA,EAAE,CAACW,YAAH;AACH;AAAE;;AACH,MAAMG,GAAG,GAAG,UAAUC,EAAV,EAAc;AAAE,SAAO;AAAE,oBAAgBA;AAAlB,GAAP;AAAgC,CAA5D;;AACA,OAAO,MAAMC,eAAN,CAAsB;AACzBC,EAAAA,WAAW,CAACC,EAAD,EAAKC,WAAL,EAAkB;AACzB,SAAKD,EAAL,GAAUA,EAAV;AACA,SAAKC,WAAL,GAAmBA,WAAnB;AACA,SAAKC,OAAL,GAAe,EAAf;AACA,SAAKC,OAAL,GAAe,KAAf;AACA,SAAKC,iBAAL,GAAyB,KAAKJ,EAAL,CAAQK,KAAR,CAAc;AACnCC,MAAAA,SAAS,EAAE,CAAC,EAAD,EAAK,CAAC3B,UAAU,CAAC4B,QAAZ,CAAL,CADwB;AAEnCC,MAAAA,QAAQ,EAAE,CAAC,EAAD,EAAK,CAAC7B,UAAU,CAAC4B,QAAZ,CAAL,CAFyB;AAGnCE,MAAAA,KAAK,EAAE,CAAC,EAAD,EAAK;AACJC,QAAAA,UAAU,EAAE,CAAC/B,UAAU,CAAC4B,QAAZ,EAAsB5B,UAAU,CAAC8B,KAAjC,CADR;AAEJE,QAAAA,eAAe,EAAE,CAAC9B,UAAU,CAAC,KAAKoB,WAAN,CAAX,CAFb;AAGJW,QAAAA,QAAQ,EAAE;AAHN,OAAL,CAH4B;AAQnCC,MAAAA,QAAQ,EAAE,CAAC,EAAD,EAAK;AACPH,QAAAA,UAAU,EAAE,CAAC/B,UAAU,CAAC4B,QAAZ,EAAsB3B,aAAa,EAAnC,CADL;AAEPgC,QAAAA,QAAQ,EAAE;AAFH,OAAL;AARyB,KAAd,CAAzB;AAaH;;AACDE,EAAAA,QAAQ,GAAG;AACP;AACA;AACA;AACA;AACA,SAAKV,iBAAL,CAAuBW,QAAvB,CAAgC,WAAhC,EAA6CC,YAA7C,CACKC,SADL,CACe,MAAM,KAAKC,8BAAL,EADrB;AAEA,SAAKd,iBAAL,CAAuBW,QAAvB,CAAgC,UAAhC,EAA4CC,YAA5C,CACKC,SADL,CACe,MAAM,KAAKC,8BAAL,EADrB;AAEH;;AACDC,EAAAA,QAAQ,GAAG;AACP,QAAI,CAAC,KAAKf,iBAAL,CAAuBgB,KAA5B,EAAmC;AAC/B;AACH;;AACD,UAAMC,IAAI,GAAG,KAAKjB,iBAAL,CAAuBkB,KAApC;AACA,SAAKnB,OAAL,GAAe,IAAf;AACA,SAAKF,WAAL,CAAiBsB,iBAAjB,CAAmCF,IAAnC,EAAyCJ,SAAzC,CAAmDO,MAAM,IAAI;AACzD,WAAKtB,OAAL,GAAgB,QAAOsB,MAAM,CAAClB,SAAU,oCAAxC;AACA,WAAKH,OAAL,GAAe,KAAf;AACH,KAHD,EAGG,MAAM;AACL,WAAKD,OAAL,GAAgB,uBAAhB;AACA,WAAKC,OAAL,GAAe,KAAf;AACH,KAND;AAOH;;AACDe,EAAAA,8BAA8B,GAAG;AAC7B,SAAKd,iBAAL,CAAuBW,QAAvB,CAAgC,UAAhC,EAA4CU,sBAA5C,CAAmE;AAAEC,MAAAA,SAAS,EAAE;AAAb,KAAnE;AACH;;AA9CwB;;AAgD7B5B,eAAe,CAAC6B,IAAhB,GAAuB,SAASC,uBAAT,CAAiCC,CAAjC,EAAoC;AAAE,SAAO,KAAKA,CAAC,IAAI/B,eAAV,EAA2BhB,EAAE,CAACgD,iBAAH,CAAqB/C,EAAE,CAACgD,WAAxB,CAA3B,EAAiEjD,EAAE,CAACgD,iBAAH,CAAqB9C,EAAE,CAACgD,WAAxB,CAAjE,CAAP;AAAgH,CAA7K;;AACAlC,eAAe,CAACmC,IAAhB,GAAuB,aAAcnD,EAAE,CAACoD,iBAAH,CAAqB;AAAEC,EAAAA,IAAI,EAAErC,eAAR;AAAyBsC,EAAAA,SAAS,EAAE,CAAC,CAAC,aAAD,CAAD,CAApC;AAAuDC,EAAAA,KAAK,EAAE,EAA9D;AAAkEC,EAAAA,IAAI,EAAE,CAAxE;AAA2EC,EAAAA,MAAM,EAAE,CAAC,CAAC,CAAD,EAAI,iBAAJ,EAAuB,MAAvB,EAA+B,gBAA/B,EAAiD,MAAjD,CAAD,EAA2D,CAAC,CAAD,EAAI,UAAJ,EAAgB,MAAhB,EAAwB,MAAxB,EAAgC,SAAhC,EAA2C,WAA3C,EAAwD,YAAxD,EAAsE,iBAAtE,EAAyF,UAAzF,EAAqG,QAArG,CAA3D,EAA2K,CAAC,CAAD,EAAI,MAAJ,EAAY,UAAZ,EAAwB,aAAxB,CAA3K,EAAmN,CAAC,CAAD,EAAI,WAAJ,EAAiB,UAAjB,CAAnN,EAAiP,CAAC,iBAAD,EAAoB,WAApB,EAAiC,kBAAjC,EAAqD,YAArD,CAAjP,EAAqT,CAAC,iBAAD,EAAoB,UAApB,EAAgC,kBAAhC,EAAoD,WAApD,EAAiE,OAAjE,EAA0E,EAA1E,CAArT,EAAoY,CAAC,iBAAD,EAAoB,OAApB,EAA6B,kBAA7B,EAAiD,OAAjD,EAA0D,WAA1D,EAAuE,OAAvE,CAApY,EAAqd,CAAC,iBAAD,EAAoB,UAApB,EAAgC,kBAAhC,EAAoD,UAApD,EAAgE,WAAhE,EAA6E,UAA7E,CAArd,EAA+iB,CAAC,MAAD,EAAS,QAAT,EAAmB,CAAnB,EAAsB,QAAtB,EAAgC,aAAhC,EAA+C,MAA/C,EAAuD,SAAvD,EAAkE,eAAlE,EAAmF,YAAnF,EAAiG,mBAAjG,EAAsH,oBAAtH,EAA4I,MAA5I,EAAoJ,CAApJ,EAAuJ,UAAvJ,EAAmK,SAAnK,CAA/iB,EAA8tB,CAAC,CAAD,EAAI,MAAJ,CAA9tB,EAA2uB,CAAC,MAAD,EAAS,QAAT,EAAmB,SAAnB,EAA8B,aAA9B,EAA6C,MAA7C,EAAqD,MAArD,EAA6D,OAA7D,EAAsE,4BAAtE,EAAoG,CAApG,EAAuG,QAAvG,EAAiH,MAAjH,EAAyH,KAAzH,EAAgI,KAAhI,EAAuI,eAAvI,EAAwJ,cAAxJ,EAAwK,oBAAxK,CAA3uB,EAA06B,CAAC,GAAD,EAAM,8WAAN,EAAsX,MAAtX,EAA8X,cAA9X,CAA16B,EAAyzC,CAAC,GAAD,EAAM,+kBAAN,EAAulB,MAAvlB,EAA+lB,SAA/lB,CAAzzC,CAAnF;AAAw/DC,EAAAA,QAAQ,EAAE,SAASC,wBAAT,CAAkCrD,EAAlC,EAAsCC,GAAtC,EAA2C;AAAE,QAAID,EAAE,GAAG,CAAT,EAAY;AAC7mEN,MAAAA,EAAE,CAACQ,cAAH,CAAkB,CAAlB,EAAqB,KAArB,EAA4B,CAA5B,EAA+B,CAA/B,EAAkC,KAAlC,EAAyC,CAAzC,EAA4C,CAA5C,EAA+C,IAA/C,EAAqD,CAArD;AACAR,MAAAA,EAAE,CAACY,MAAH,CAAU,CAAV,EAAa,SAAb;AACAZ,MAAAA,EAAE,CAACW,YAAH;AACAX,MAAAA,EAAE,CAACQ,cAAH,CAAkB,CAAlB,EAAqB,MAArB,EAA6B,CAA7B;AACAR,MAAAA,EAAE,CAAC4D,UAAH,CAAc,UAAd,EAA0B,SAASC,iDAAT,GAA6D;AAAE,eAAOtD,GAAG,CAAC8B,QAAJ,EAAP;AAAwB,OAAjH;AACArC,MAAAA,EAAE,CAACU,SAAH,CAAa,CAAb,EAAgB,iBAAhB,EAAmC,CAAnC,EAAsC,CAAtC,EAAyC,iBAAzC,EAA4D,CAA5D,EAA+D,CAA/D,EAAkE,iBAAlE,EAAqF,CAArF,EAAwF,CAAxF,EAA2F,iBAA3F,EAA8G,CAA9G;AACAV,MAAAA,EAAE,CAACQ,cAAH,CAAkB,CAAlB,EAAqB,QAArB,EAA+B,CAA/B;AACAR,MAAAA,EAAE,CAAC8D,UAAH,CAAc,EAAd,EAAkBzD,gCAAlB,EAAoD,CAApD,EAAuD,CAAvD,EAA0D,MAA1D,EAAkE,CAAlE;AACAL,MAAAA,EAAE,CAAC8D,UAAH,CAAc,EAAd,EAAkBjD,gCAAlB,EAAoD,CAApD,EAAuD,CAAvD,EAA0D,MAA1D,EAAkE,CAAlE;AACAb,MAAAA,EAAE,CAACW,YAAH;AACAX,MAAAA,EAAE,CAACY,MAAH,CAAU,EAAV;AACAZ,MAAAA,EAAE,CAACW,YAAH;AACH;;AAAC,QAAIL,EAAE,GAAG,CAAT,EAAY;AACVN,MAAAA,EAAE,CAAC+D,SAAH,CAAa,CAAb;AACA/D,MAAAA,EAAE,CAACgE,UAAH,CAAc,WAAd,EAA2BzD,GAAG,CAACe,iBAA/B;AACAtB,MAAAA,EAAE,CAAC+D,SAAH,CAAa,CAAb;AACA/D,MAAAA,EAAE,CAACgE,UAAH,CAAc,UAAd,EAA0B,CAACzD,GAAG,CAACe,iBAAJ,CAAsBgB,KAAvB,IAAgC/B,GAAG,CAACc,OAA9D,EAAuE,SAAvE,EAAkFrB,EAAE,CAACiE,eAAH,CAAmB,CAAnB,EAAsBnD,GAAtB,EAA2B,CAACP,GAAG,CAACe,iBAAJ,CAAsBgB,KAAlD,CAAlF;AACAtC,MAAAA,EAAE,CAAC+D,SAAH,CAAa,CAAb;AACA/D,MAAAA,EAAE,CAACgE,UAAH,CAAc,MAAd,EAAsBzD,GAAG,CAACc,OAA1B;AACArB,MAAAA,EAAE,CAAC+D,SAAH,CAAa,CAAb;AACA/D,MAAAA,EAAE,CAACgE,UAAH,CAAc,MAAd,EAAsB,CAACzD,GAAG,CAACc,OAA3B;AACArB,MAAAA,EAAE,CAAC+D,SAAH,CAAa,CAAb;AACA/D,MAAAA,EAAE,CAACkE,kBAAH,CAAsB,GAAtB,EAA2B3D,GAAG,CAACa,OAA/B,EAAwC,GAAxC;AACH;AAAE,GAxBmD;AAwBjD+C,EAAAA,UAAU,EAAE,CAAClE,EAAE,CAACmE,aAAJ,EAAmBnE,EAAE,CAACoE,oBAAtB,EAA4CpE,EAAE,CAACqE,kBAA/C,EAAmEnE,EAAE,CAACoE,mBAAtE,EAA2FtE,EAAE,CAACuE,eAA9F,EAA+GvE,EAAE,CAACwE,eAAlH,EAAmIrE,EAAE,CAACsE,OAAtI,EAA+ItE,EAAE,CAACuE,IAAlJ,CAxBqC;AAwBoHC,EAAAA,MAAM,EAAE,CAAC,yKAAD;AAxB5H,CAArB,CAArC",
    "sourcesContent": [
      "import { Validators } from \"@angular/forms\";\nimport { checkPassword } from \"../../core/validators/password.validator\";\nimport { checkEmail } from \"../../core/validators/email.validator\";\nimport * as i0 from \"@angular/core\";\nimport * as i1 from \"@angular/forms\";\nimport * as i2 from \"../../shared/services/auth.service\";\nimport * as i3 from \"../../shared/components/clear-input/clear-input.component\";\nimport * as i4 from \"@angular/common\";\nfunction SignUpComponent_span_10_Template(rf, ctx) { if (rf & 1) {\n    i0.ɵɵelementStart(0, \"span\");\n    i0.ɵɵnamespaceSVG();\n    i0.ɵɵelementStart(1, \"svg\", 10);\n    i0.ɵɵelement(2, \"path\", 11)(3, \"path\", 12);\n    i0.ɵɵelementEnd();\n    i0.ɵɵtext(4, \" Creating... \");\n    i0.ɵɵelementEnd();\n} }\nfunction SignUpComponent_span_11_Template(rf, ctx) { if (rf & 1) {\n    i0.ɵɵelementStart(0, \"span\");\n    i0.ɵɵtext(1, \" Create Account \");\n    i0.ɵɵelementEnd();\n} }\nconst _c0 = function (a0) { return { \"bg-gray-600 \": a0 }; };\nexport class SignUpComponent {\n    constructor(fb, authService) {\n        this.fb = fb;\n        this.authService = authService;\n        this.message = '';\n        this.loading = false;\n        this.accountSignupForm = this.fb.group({\n            firstName: ['', [Validators.required]],\n            lastName: ['', [Validators.required]],\n            email: ['', {\n                    validators: [Validators.required, Validators.email],\n                    asyncValidators: [checkEmail(this.authService)],\n                    updateOn: 'blur'\n                }],\n            password: ['', {\n                    validators: [Validators.required, checkPassword()],\n                    updateOn: 'change'\n                }]\n        });\n    }\n    ngOnInit() {\n        // Required to listen on below controls in the following scenario\n        // User first enters the password which is valid becsause there is no firstname/lastname\n        // User then enters firstname/lastname\n        // In this case need to update validity of password again\n        this.accountSignupForm.controls['firstName'].valueChanges\n            .subscribe(() => this.updatePasswordValueAndValidity());\n        this.accountSignupForm.controls['lastName'].valueChanges\n            .subscribe(() => this.updatePasswordValueAndValidity());\n    }\n    onSubmit() {\n        if (!this.accountSignupForm.valid) {\n            return;\n        }\n        const user = this.accountSignupForm.value;\n        this.loading = true;\n        this.authService.sendSignupRequest(user).subscribe(result => {\n            this.message = `User ${result.firstName} has been registered successfully!`;\n            this.loading = false;\n        }, () => {\n            this.message = `Something went wrong!`;\n            this.loading = false;\n        });\n    }\n    updatePasswordValueAndValidity() {\n        this.accountSignupForm.controls['password'].updateValueAndValidity({ emitEvent: false });\n    }\n}\nSignUpComponent.ɵfac = function SignUpComponent_Factory(t) { return new (t || SignUpComponent)(i0.ɵɵdirectiveInject(i1.FormBuilder), i0.ɵɵdirectiveInject(i2.AuthService)); };\nSignUpComponent.ɵcmp = /*@__PURE__*/ i0.ɵɵdefineComponent({ type: SignUpComponent, selectors: [[\"app-sign-up\"]], decls: 13, vars: 8, consts: [[1, \"bg-grey-lighter\", \"flex\", \"justify-center\", \"px-3\"], [1, \"bg-white\", \"px-6\", \"py-8\", \"rounded\", \"shadow-md\", \"text-black\", \"content-between\", \"md:w-1/4\", \"w-full\"], [1, \"mb-8\", \"text-3xl\", \"text-center\"], [3, \"formGroup\", \"ngSubmit\"], [\"formControlName\", \"firstName\", \"inputPlaceholder\", \"First Name\"], [\"formControlName\", \"lastName\", \"inputPlaceholder\", \"Last Name\", \"value\", \"\"], [\"formControlName\", \"email\", \"inputPlaceholder\", \"Email\", \"inputType\", \"email\"], [\"formControlName\", \"password\", \"inputPlaceholder\", \"Password\", \"inputType\", \"password\"], [\"type\", \"submit\", 1, \"w-full\", \"text-center\", \"py-3\", \"rounded\", \"bg-purple-700\", \"text-white\", \"hover:bg-gray-600\", \"focus:outline-none\", \"my-1\", 3, \"disabled\", \"ngClass\"], [4, \"ngIf\"], [\"role\", \"status\", \"viewBox\", \"0 0 100 101\", \"fill\", \"none\", \"xmlns\", \"http://www.w3.org/2000/svg\", 1, \"inline\", \"mr-2\", \"w-4\", \"h-4\", \"text-gray-200\", \"animate-spin\", \"dark:text-gray-600\"], [\"d\", \"M100 50.5908C100 78.2051 77.6142 100.591 50 100.591C22.3858 100.591 0 78.2051 0 50.5908C0 22.9766 22.3858 0.59082 50 0.59082C77.6142 0.59082 100 22.9766 100 50.5908ZM9.08144 50.5908C9.08144 73.1895 27.4013 91.5094 50 91.5094C72.5987 91.5094 90.9186 73.1895 90.9186 50.5908C90.9186 27.9921 72.5987 9.67226 50 9.67226C27.4013 9.67226 9.08144 27.9921 9.08144 50.5908Z\", \"fill\", \"currentColor\"], [\"d\", \"M93.9676 39.0409C96.393 38.4038 97.8624 35.9116 97.0079 33.5539C95.2932 28.8227 92.871 24.3692 89.8167 20.348C85.8452 15.1192 80.8826 10.7238 75.2124 7.41289C69.5422 4.10194 63.2754 1.94025 56.7698 1.05124C51.7666 0.367541 46.6976 0.446843 41.7345 1.27873C39.2613 1.69328 37.813 4.19778 38.4501 6.62326C39.0873 9.04874 41.5694 10.4717 44.0505 10.1071C47.8511 9.54855 51.7191 9.52689 55.5402 10.0491C60.8642 10.7766 65.9928 12.5457 70.6331 15.2552C75.2735 17.9648 79.3347 21.5619 82.5849 25.841C84.9175 28.9121 86.7997 32.2913 88.1811 35.8758C89.083 38.2158 91.5421 39.6781 93.9676 39.0409Z\", \"fill\", \"#1C64F2\"]], template: function SignUpComponent_Template(rf, ctx) { if (rf & 1) {\n        i0.ɵɵelementStart(0, \"div\", 0)(1, \"div\", 1)(2, \"h1\", 2);\n        i0.ɵɵtext(3, \"Sign up\");\n        i0.ɵɵelementEnd();\n        i0.ɵɵelementStart(4, \"form\", 3);\n        i0.ɵɵlistener(\"ngSubmit\", function SignUpComponent_Template_form_ngSubmit_4_listener() { return ctx.onSubmit(); });\n        i0.ɵɵelement(5, \"app-clear-input\", 4)(6, \"app-clear-input\", 5)(7, \"app-clear-input\", 6)(8, \"app-clear-input\", 7);\n        i0.ɵɵelementStart(9, \"button\", 8);\n        i0.ɵɵtemplate(10, SignUpComponent_span_10_Template, 5, 0, \"span\", 9);\n        i0.ɵɵtemplate(11, SignUpComponent_span_11_Template, 2, 0, \"span\", 9);\n        i0.ɵɵelementEnd()();\n        i0.ɵɵtext(12);\n        i0.ɵɵelementEnd()();\n    } if (rf & 2) {\n        i0.ɵɵadvance(4);\n        i0.ɵɵproperty(\"formGroup\", ctx.accountSignupForm);\n        i0.ɵɵadvance(5);\n        i0.ɵɵproperty(\"disabled\", !ctx.accountSignupForm.valid || ctx.loading)(\"ngClass\", i0.ɵɵpureFunction1(6, _c0, !ctx.accountSignupForm.valid));\n        i0.ɵɵadvance(1);\n        i0.ɵɵproperty(\"ngIf\", ctx.loading);\n        i0.ɵɵadvance(1);\n        i0.ɵɵproperty(\"ngIf\", !ctx.loading);\n        i0.ɵɵadvance(1);\n        i0.ɵɵtextInterpolate1(\" \", ctx.message, \" \");\n    } }, directives: [i1.ɵNgNoValidate, i1.NgControlStatusGroup, i1.FormGroupDirective, i3.ClearInputComponent, i1.NgControlStatus, i1.FormControlName, i4.NgClass, i4.NgIf], styles: [\"\\n/*# sourceMappingURL=data:application/json;base64,eyJ2ZXJzaW9uIjozLCJzb3VyY2VzIjpbXSwibmFtZXMiOltdLCJtYXBwaW5ncyI6IiIsImZpbGUiOiJzaWduLXVwLmNvbXBvbmVudC5jc3MifQ== */\"] });\n"
    ]
  },
  "metadata": {},
  "sourceType": "module"
}
