{
  "ast": null,
  "code": "import _asyncToGenerator from \"/Users/muratzengin/Development/fedex/node_modules/@babel/runtime/helpers/esm/asyncToGenerator.js\";\nimport { TestBed } from '@angular/core/testing';\nimport { RouterTestingModule } from '@angular/router/testing';\nimport { AppComponent } from './app.component';\ndescribe('AppComponent', () => {\n  beforeEach( /*#__PURE__*/_asyncToGenerator(function* () {\n    yield TestBed.configureTestingModule({\n      imports: [RouterTestingModule],\n      declarations: [AppComponent]\n    }).compileComponents();\n  }));\n  it('should create the app', () => {\n    const fixture = TestBed.createComponent(AppComponent);\n    const app = fixture.componentInstance;\n    expect(app).toBeTruthy();\n  });\n  it(`should have as title 'fedexSignup'`, () => {\n    const fixture = TestBed.createComponent(AppComponent);\n    const app = fixture.componentInstance;\n    expect(app.title).toEqual('fedexSignup');\n  });\n  it('should render title', () => {\n    var _a;\n\n    const fixture = TestBed.createComponent(AppComponent);\n    fixture.detectChanges();\n    const compiled = fixture.nativeElement;\n    expect((_a = compiled.querySelector('.content span')) === null || _a === void 0 ? void 0 : _a.textContent).toContain('fedexSignup app is running!');\n  });\n});",
  "map": {
    "version": 3,
    "sources": [
      "/Users/muratzengin/Development/fedex/src/app/app.component.spec.ts"
    ],
    "names": [
      "TestBed",
      "RouterTestingModule",
      "AppComponent",
      "describe",
      "beforeEach",
      "configureTestingModule",
      "imports",
      "declarations",
      "compileComponents",
      "it",
      "fixture",
      "createComponent",
      "app",
      "componentInstance",
      "expect",
      "toBeTruthy",
      "title",
      "toEqual",
      "_a",
      "detectChanges",
      "compiled",
      "nativeElement",
      "querySelector",
      "textContent",
      "toContain"
    ],
    "mappings": ";AAAA,SAASA,OAAT,QAAwB,uBAAxB;AACA,SAASC,mBAAT,QAAoC,yBAApC;AACA,SAASC,YAAT,QAA6B,iBAA7B;AACAC,QAAQ,CAAC,cAAD,EAAiB,MAAM;AAC3BC,EAAAA,UAAU,iCAAC,aAAY;AACnB,UAAMJ,OAAO,CAACK,sBAAR,CAA+B;AACjCC,MAAAA,OAAO,EAAE,CACLL,mBADK,CADwB;AAIjCM,MAAAA,YAAY,EAAE,CACVL,YADU;AAJmB,KAA/B,EAOHM,iBAPG,EAAN;AAQH,GATS,EAAV;AAUAC,EAAAA,EAAE,CAAC,uBAAD,EAA0B,MAAM;AAC9B,UAAMC,OAAO,GAAGV,OAAO,CAACW,eAAR,CAAwBT,YAAxB,CAAhB;AACA,UAAMU,GAAG,GAAGF,OAAO,CAACG,iBAApB;AACAC,IAAAA,MAAM,CAACF,GAAD,CAAN,CAAYG,UAAZ;AACH,GAJC,CAAF;AAKAN,EAAAA,EAAE,CAAE,oCAAF,EAAuC,MAAM;AAC3C,UAAMC,OAAO,GAAGV,OAAO,CAACW,eAAR,CAAwBT,YAAxB,CAAhB;AACA,UAAMU,GAAG,GAAGF,OAAO,CAACG,iBAApB;AACAC,IAAAA,MAAM,CAACF,GAAG,CAACI,KAAL,CAAN,CAAkBC,OAAlB,CAA0B,aAA1B;AACH,GAJC,CAAF;AAKAR,EAAAA,EAAE,CAAC,qBAAD,EAAwB,MAAM;AAC5B,QAAIS,EAAJ;;AACA,UAAMR,OAAO,GAAGV,OAAO,CAACW,eAAR,CAAwBT,YAAxB,CAAhB;AACAQ,IAAAA,OAAO,CAACS,aAAR;AACA,UAAMC,QAAQ,GAAGV,OAAO,CAACW,aAAzB;AACAP,IAAAA,MAAM,CAAC,CAACI,EAAE,GAAGE,QAAQ,CAACE,aAAT,CAAuB,eAAvB,CAAN,MAAmD,IAAnD,IAA2DJ,EAAE,KAAK,KAAK,CAAvE,GAA2E,KAAK,CAAhF,GAAoFA,EAAE,CAACK,WAAxF,CAAN,CAA2GC,SAA3G,CAAqH,6BAArH;AACH,GANC,CAAF;AAOH,CA5BO,CAAR",
    "sourcesContent": [
      "import { TestBed } from '@angular/core/testing';\nimport { RouterTestingModule } from '@angular/router/testing';\nimport { AppComponent } from './app.component';\ndescribe('AppComponent', () => {\n    beforeEach(async () => {\n        await TestBed.configureTestingModule({\n            imports: [\n                RouterTestingModule\n            ],\n            declarations: [\n                AppComponent\n            ],\n        }).compileComponents();\n    });\n    it('should create the app', () => {\n        const fixture = TestBed.createComponent(AppComponent);\n        const app = fixture.componentInstance;\n        expect(app).toBeTruthy();\n    });\n    it(`should have as title 'fedexSignup'`, () => {\n        const fixture = TestBed.createComponent(AppComponent);\n        const app = fixture.componentInstance;\n        expect(app.title).toEqual('fedexSignup');\n    });\n    it('should render title', () => {\n        var _a;\n        const fixture = TestBed.createComponent(AppComponent);\n        fixture.detectChanges();\n        const compiled = fixture.nativeElement;\n        expect((_a = compiled.querySelector('.content span')) === null || _a === void 0 ? void 0 : _a.textContent).toContain('fedexSignup app is running!');\n    });\n});\n"
    ]
  },
  "metadata": {},
  "sourceType": "module"
}
