{
  "ast": null,
  "code": "import * as i0 from \"@angular/core\";\nimport * as i1 from \"@angular/router\";\nexport let AppComponent = /*#__PURE__*/(() => {\n  class AppComponent {\n    constructor() {\n      this.title = 'fedexSignup';\n    }\n\n  }\n\n  AppComponent.ɵfac = function AppComponent_Factory(t) {\n    return new (t || AppComponent)();\n  };\n\n  AppComponent.ɵcmp = /*@__PURE__*/i0.ɵɵdefineComponent({\n    type: AppComponent,\n    selectors: [[\"app-root\"]],\n    decls: 3,\n    vars: 0,\n    consts: [[1, \"text-3xl\", \"font-bold\", \"underline\"]],\n    template: function AppComponent_Template(rf, ctx) {\n      if (rf & 1) {\n        i0.ɵɵelementStart(0, \"h1\", 0);\n        i0.ɵɵtext(1, \" Hello world!\\n\");\n        i0.ɵɵelementEnd();\n        i0.ɵɵelement(2, \"router-outlet\");\n      }\n    },\n    directives: [i1.RouterOutlet],\n    styles: [\"\"]\n  });\n  return AppComponent;\n})();",
  "map": null,
  "metadata": {},
  "sourceType": "module"
}
