{
  "ast": null,
  "code": "import { __decorate } from \"tslib\";\nimport __NG_CLI_RESOURCE__0 from \"./sign-up.component.html?ngResource\";\nimport __NG_CLI_RESOURCE__1 from \"./sign-up.component.css?ngResource\";\nimport { Component } from '@angular/core';\nimport { FormBuilder, Validators } from \"@angular/forms\";\nimport { checkPassword } from \"../../shared/validators/password.validator\";\nimport { checkEmail } from \"../../shared/validators/email.validator\";\nimport { AuthService } from \"../../shared/services/auth.service\";\nlet SignUpComponent = class SignUpComponent {\n  constructor(fb, authService) {\n    this.fb = fb;\n    this.authService = authService;\n    this.message = '';\n    this.loading = false;\n    this.accountSignupForm = this.fb.group({\n      firstName: ['', [Validators.required]],\n      lastName: ['', [Validators.required]],\n      email: ['', {\n        validators: [Validators.required, Validators.email],\n        asyncValidators: [checkEmail(this.authService)],\n        updateOn: 'blur'\n      }],\n      password: ['', {\n        validators: [Validators.required, checkPassword()],\n        updateOn: 'change'\n      }]\n    });\n  }\n\n  ngOnInit() {\n    this.accountSignupForm.controls['firstName'].valueChanges.subscribe(() => this.updatePasswordValueAndValidity());\n    this.accountSignupForm.controls['lastName'].valueChanges.subscribe(() => this.updatePasswordValueAndValidity());\n  }\n\n  onSubmit() {\n    if (!this.accountSignupForm.valid) {\n      return;\n    }\n\n    const user = this.accountSignupForm.value;\n    this.loading = true;\n    this.authService.sendSignupRequest(user).subscribe(result => {\n      this.message = `User ${result.firstName} has been created successfully!`;\n      this.loading = false;\n    }, () => {\n      this.message = `Something went wrong!`;\n      this.loading = false;\n    });\n  }\n\n  updatePasswordValueAndValidity() {\n    this.accountSignupForm.controls['password'].updateValueAndValidity({\n      emitEvent: false\n    });\n  }\n\n};\n\nSignUpComponent.ctorParameters = () => [{\n  type: FormBuilder\n}, {\n  type: AuthService\n}];\n\nSignUpComponent = __decorate([Component({\n  selector: 'app-sign-up',\n  template: __NG_CLI_RESOURCE__0,\n  styles: [__NG_CLI_RESOURCE__1]\n})], SignUpComponent);\nexport { SignUpComponent };",
  "map": {
    "version": 3,
    "sources": [
      "/Users/muratzengin/Development/fedex/src/app/auth/sign-up/sign-up.component.ts"
    ],
    "names": [
      "__decorate",
      "__NG_CLI_RESOURCE__0",
      "__NG_CLI_RESOURCE__1",
      "Component",
      "FormBuilder",
      "Validators",
      "checkPassword",
      "checkEmail",
      "AuthService",
      "SignUpComponent",
      "constructor",
      "fb",
      "authService",
      "message",
      "loading",
      "accountSignupForm",
      "group",
      "firstName",
      "required",
      "lastName",
      "email",
      "validators",
      "asyncValidators",
      "updateOn",
      "password",
      "ngOnInit",
      "controls",
      "valueChanges",
      "subscribe",
      "updatePasswordValueAndValidity",
      "onSubmit",
      "valid",
      "user",
      "value",
      "sendSignupRequest",
      "result",
      "updateValueAndValidity",
      "emitEvent",
      "ctorParameters",
      "type",
      "selector",
      "template",
      "styles"
    ],
    "mappings": "AAAA,SAASA,UAAT,QAA2B,OAA3B;AACA,OAAOC,oBAAP,MAAiC,qCAAjC;AACA,OAAOC,oBAAP,MAAiC,oCAAjC;AACA,SAASC,SAAT,QAA0B,eAA1B;AACA,SAASC,WAAT,EAAsBC,UAAtB,QAAwC,gBAAxC;AACA,SAASC,aAAT,QAA8B,4CAA9B;AACA,SAASC,UAAT,QAA2B,yCAA3B;AACA,SAASC,WAAT,QAA4B,oCAA5B;AACA,IAAIC,eAAe,GAAG,MAAMA,eAAN,CAAsB;AACxCC,EAAAA,WAAW,CAACC,EAAD,EAAKC,WAAL,EAAkB;AACzB,SAAKD,EAAL,GAAUA,EAAV;AACA,SAAKC,WAAL,GAAmBA,WAAnB;AACA,SAAKC,OAAL,GAAe,EAAf;AACA,SAAKC,OAAL,GAAe,KAAf;AACA,SAAKC,iBAAL,GAAyB,KAAKJ,EAAL,CAAQK,KAAR,CAAc;AACnCC,MAAAA,SAAS,EAAE,CAAC,EAAD,EAAK,CAACZ,UAAU,CAACa,QAAZ,CAAL,CADwB;AAEnCC,MAAAA,QAAQ,EAAE,CAAC,EAAD,EAAK,CAACd,UAAU,CAACa,QAAZ,CAAL,CAFyB;AAGnCE,MAAAA,KAAK,EAAE,CAAC,EAAD,EAAK;AACJC,QAAAA,UAAU,EAAE,CAAChB,UAAU,CAACa,QAAZ,EAAsBb,UAAU,CAACe,KAAjC,CADR;AAEJE,QAAAA,eAAe,EAAE,CAACf,UAAU,CAAC,KAAKK,WAAN,CAAX,CAFb;AAGJW,QAAAA,QAAQ,EAAE;AAHN,OAAL,CAH4B;AAQnCC,MAAAA,QAAQ,EAAE,CAAC,EAAD,EAAK;AACPH,QAAAA,UAAU,EAAE,CAAChB,UAAU,CAACa,QAAZ,EAAsBZ,aAAa,EAAnC,CADL;AAEPiB,QAAAA,QAAQ,EAAE;AAFH,OAAL;AARyB,KAAd,CAAzB;AAaH;;AACDE,EAAAA,QAAQ,GAAG;AACP,SAAKV,iBAAL,CAAuBW,QAAvB,CAAgC,WAAhC,EAA6CC,YAA7C,CACKC,SADL,CACe,MAAM,KAAKC,8BAAL,EADrB;AAEA,SAAKd,iBAAL,CAAuBW,QAAvB,CAAgC,UAAhC,EAA4CC,YAA5C,CACKC,SADL,CACe,MAAM,KAAKC,8BAAL,EADrB;AAEH;;AACDC,EAAAA,QAAQ,GAAG;AACP,QAAI,CAAC,KAAKf,iBAAL,CAAuBgB,KAA5B,EAAmC;AAC/B;AACH;;AACD,UAAMC,IAAI,GAAG,KAAKjB,iBAAL,CAAuBkB,KAApC;AACA,SAAKnB,OAAL,GAAe,IAAf;AACA,SAAKF,WAAL,CAAiBsB,iBAAjB,CAAmCF,IAAnC,EAAyCJ,SAAzC,CAAmDO,MAAM,IAAI;AACzD,WAAKtB,OAAL,GAAgB,QAAOsB,MAAM,CAAClB,SAAU,iCAAxC;AACA,WAAKH,OAAL,GAAe,KAAf;AACH,KAHD,EAGG,MAAM;AACL,WAAKD,OAAL,GAAgB,uBAAhB;AACA,WAAKC,OAAL,GAAe,KAAf;AACH,KAND;AAOH;;AACDe,EAAAA,8BAA8B,GAAG;AAC7B,SAAKd,iBAAL,CAAuBW,QAAvB,CAAgC,UAAhC,EAA4CU,sBAA5C,CAAmE;AAAEC,MAAAA,SAAS,EAAE;AAAb,KAAnE;AACH;;AA1CuC,CAA5C;;AA4CA5B,eAAe,CAAC6B,cAAhB,GAAiC,MAAM,CACnC;AAAEC,EAAAA,IAAI,EAAEnC;AAAR,CADmC,EAEnC;AAAEmC,EAAAA,IAAI,EAAE/B;AAAR,CAFmC,CAAvC;;AAIAC,eAAe,GAAGT,UAAU,CAAC,CACzBG,SAAS,CAAC;AACNqC,EAAAA,QAAQ,EAAE,aADJ;AAENC,EAAAA,QAAQ,EAAExC,oBAFJ;AAGNyC,EAAAA,MAAM,EAAE,CAACxC,oBAAD;AAHF,CAAD,CADgB,CAAD,EAMzBO,eANyB,CAA5B;AAOA,SAASA,eAAT",
    "sourcesContent": [
      "import { __decorate } from \"tslib\";\nimport __NG_CLI_RESOURCE__0 from \"./sign-up.component.html?ngResource\";\nimport __NG_CLI_RESOURCE__1 from \"./sign-up.component.css?ngResource\";\nimport { Component } from '@angular/core';\nimport { FormBuilder, Validators } from \"@angular/forms\";\nimport { checkPassword } from \"../../shared/validators/password.validator\";\nimport { checkEmail } from \"../../shared/validators/email.validator\";\nimport { AuthService } from \"../../shared/services/auth.service\";\nlet SignUpComponent = class SignUpComponent {\n    constructor(fb, authService) {\n        this.fb = fb;\n        this.authService = authService;\n        this.message = '';\n        this.loading = false;\n        this.accountSignupForm = this.fb.group({\n            firstName: ['', [Validators.required]],\n            lastName: ['', [Validators.required]],\n            email: ['', {\n                    validators: [Validators.required, Validators.email],\n                    asyncValidators: [checkEmail(this.authService)],\n                    updateOn: 'blur'\n                }],\n            password: ['', {\n                    validators: [Validators.required, checkPassword()],\n                    updateOn: 'change'\n                }]\n        });\n    }\n    ngOnInit() {\n        this.accountSignupForm.controls['firstName'].valueChanges\n            .subscribe(() => this.updatePasswordValueAndValidity());\n        this.accountSignupForm.controls['lastName'].valueChanges\n            .subscribe(() => this.updatePasswordValueAndValidity());\n    }\n    onSubmit() {\n        if (!this.accountSignupForm.valid) {\n            return;\n        }\n        const user = this.accountSignupForm.value;\n        this.loading = true;\n        this.authService.sendSignupRequest(user).subscribe(result => {\n            this.message = `User ${result.firstName} has been created successfully!`;\n            this.loading = false;\n        }, () => {\n            this.message = `Something went wrong!`;\n            this.loading = false;\n        });\n    }\n    updatePasswordValueAndValidity() {\n        this.accountSignupForm.controls['password'].updateValueAndValidity({ emitEvent: false });\n    }\n};\nSignUpComponent.ctorParameters = () => [\n    { type: FormBuilder },\n    { type: AuthService }\n];\nSignUpComponent = __decorate([\n    Component({\n        selector: 'app-sign-up',\n        template: __NG_CLI_RESOURCE__0,\n        styles: [__NG_CLI_RESOURCE__1]\n    })\n], SignUpComponent);\nexport { SignUpComponent };\n"
    ]
  },
  "metadata": {},
  "sourceType": "module"
}
